
Polynomial eigenproblem stored in file.

 Reading REAL matrices from binary files...
 Number of iterations of the method: 12
 Number of requested eigenvalues: 4
 Stopping condition: tol=1e-14, maxit=100
 All requested eigenvalues computed up to the required tolerance:
     0.00000+15457.40554i, 0.00000-15457.40554i, 0.00000+14602.93503i, 0.00000-14602.93503i

